…
Set μ=0 Generate 5000 datasets from the model x∼Normal\[μ,σ\]

``` r
zero_output = 
  rerun(5000, sim_ms(30, 0, 5)) %>% 
  bind_rows() %>% 
  select(
    estimate, p.value
  )

zero_output
```

    ## # A tibble: 5,000 x 2
    ##    estimate p.value
    ##       <dbl>   <dbl>
    ##  1    1.39   0.101 
    ##  2    1.26   0.161 
    ##  3   -0.690  0.459 
    ##  4   -0.216  0.812 
    ##  5   -1.59   0.0374
    ##  6    1.22   0.277 
    ##  7   -0.543  0.549 
    ##  8   -0.130  0.902 
    ##  9   -0.518  0.536 
    ## 10    1.02   0.357 
    ## # … with 4,990 more rows
…
